PD1|9999.7|100000.7
PD2|15973.7|86816.1
PE|60902.0|122370.9
2D311|22980.0|149974.0
1D308N|37252.5|146022.5
00311|46155.1|149536.5
1E308|53127.1|146158.8
2E311|67260.1|150416.4
1D301N|37264.4|137750.0
00301N|46122.2|136773.8
1E301|53552.2|136957.6
RE0|70419.3|106528.2
